Filter letter,Filter name,Instrument filter,Central wavelength [micron]
A,A-vimos-u,VIMOS-u,0.37
B,B-subaru-B,Subaru-B,0.44
C,C-subaru-G,Subaru-G,0.477
D,D-subaru-V,Subaru-V,0.55
E,E-subaru-r,Subaru-r,0.628
F,F-subaru-i,Subaru-i,0.768
G,G-subaru-z,Subaru-z,0.9105
H,H-vista-Y,VISTA-Y,1.02
I,I-vista-J,VISTA-J,1.252
J,J-vista-H,VISTA-H,1.645
K,K-vista-Ks,VISTA-Ks,2.147
L,L-spitzer-irac1,Spitzer-IRAC1,3.5
M,M-spitzer-irac2,Spitzer-IRAC2,4.49
N,N-spitzer-irac3,Spitzer-IRAC3,5.73
O,O-spitzer-irac4,Spitzer-IRAC4,7.872
P,P-spitzer-mips24,Spitzer-MIPS24,24
Q,Q-herschel-pacs70,Herschel-PACS70,70
R,R-herschel-pacs100,Herschel-PACS100,100
S,S-herschel-pacs160,Herschel-PACS160,160
